Device: Genie Garage Door RF protocol

algorithm: Keeloq

frequency: 390.0MHz
40KHz wide
400 samples/symbol
format of data: ASK
1 bit per symbol

"aaaaaa", 2ms, (data)
50ms wait
"aaaaaa", 2ms, (data)
50ms wait
"aaaaaa", 2ms, (data)
50ms wait
"aaaaaa", 2ms, (data)
50ms wait
"aaaaaa", 2ms, (data)




bare hex dump of data
d26d24926db4d24db6db4926d26d26da4d36d26926d34d34d8
d34db4da6da49369a49b49b4d26d26da4d36d26926d34d34d8
d269a69b6d34d36d34db69b6d26d26da4d36d26926d34d34d8
d349349a6d369a49b4da4926d26d26da4d36d26926d34d34d8
9269b4d249a6d34d34926db4d26d26da4d36d26926d34d34d8
9b4da69b69a69a49a4924da6d26d26da4d36d26926d34d34d8
9b6d34da4db69b69249b4d36d26d26da4d36d26926d34d34d8
da4db6d24d36924d24926d24d26d26da4d36d26926d34d34d8
da4d269249369b4db6924d24d26d26da4d36d26926d34d34d8
db4da4d369349269a4db69b4d26d26da4d36d26926d34d34d8
d269a4936d36934da6d36d36d26d26da4d36d26926d34d34d8
9a4db6d249b4da4924da6936d26d26da4d36d26926d34d34d8
d34926d26926936926934d26d26d26da4d36d26926d34d34d8


binary representation, with 01 padding delineated
1 1 01 0 01 0 01 1 01 1 01 0 01 0 01 0 01 0 01 0 01 0 01 1 01 1 01 1 01 1 01 0 01 1 01 0 01 0 01 0 01 1 01 1 01 1 01 1 01 1 01 1 01 1 01 0 01 0 01 0 01 0 01 1 01 1 01 0 01 0 01 1 01 1 01 0 01 0 01 1 01 1 01 1 01 0 01 0 01 1 01 0 01 1 01 1 01 1 01 0 01 0 01 1 01 0 01 0 01 0 01 1 01 1 01 0 01 1 01 0 01 1 01 0 01 1 01 0 01 1 01 1 000
1 1 01 0 01 1 01 0 01 1 01 1 01 1 01 0 01 1 01 1 01 0 01 1 01 1 01 1 01 0 01 0 01 0 01 0 01 1 01 1 01 0 01 1 01 0 01 0 01 0 01 1 01 1 01 0 01 0 01 1 01 1 01 0 01 1 01 0 01 0 01 1 01 1 01 0 01 0 01 1 01 1 01 1 01 0 01 0 01 1 01 0 01 1 01 1 01 1 01 0 01 0 01 1 01 0 01 0 01 0 01 1 01 1 01 0 01 1 01 0 01 1 01 0 01 1 01 0 01 1 01 1 000
1 1 01 0 01 0 01 1 01 0 01 1 01 0 01 1 01 0 01 1 01 1 01 1 01 1 01 0 01 1 01 0 01 1 01 0 01 1 01 1 01 1 01 0 01 1 01 0 01 1 01 1 01 1 01 1 01 0 01 1 01 1 01 1 01 1 01 0 01 0 01 1 01 1 01 0 01 0 01 1 01 1 01 1 01 0 01 0 01 1 01 0 01 1 01 1 01 1 01 0 01 0 01 1 01 0 01 0 01 0 01 1 01 1 01 0 01 1 01 0 01 1 01 0 01 1 01 0 01 1 01 1 000
1 1 01 0 01 1 01 0 01 0 01 0 01 1 01 0 01 0 01 1 01 0 01 1 01 1 01 0 01 1 01 1 01 0 01 1 01 0 01 0 01 0 01 1 01 1 01 0 01 1 01 1 01 0 01 0 01 0 01 0 01 0 01 1 01 1 01 0 01 0 01 1 01 1 01 0 01 0 01 1 01 1 01 1 01 0 01 0 01 1 01 0 01 1 01 1 01 1 01 0 01 0 01 1 01 0 01 0 01 0 01 1 01 1 01 0 01 1 01 0 01 1 01 0 01 1 01 0 01 1 01 1 000
1 0 01 0 01 0 01 1 01 0 01 1 01 1 01 0 01 1 01 0 01 0 01 0 01 0 01 1 01 0 01 1 01 1 01 0 01 1 01 0 01 1 01 0 01 1 01 0 01 0 01 0 01 0 01 1 01 1 01 1 01 1 01 0 01 1 01 0 01 0 01 1 01 1 01 0 01 0 01 1 01 1 01 1 01 0 01 0 01 1 01 0 01 1 01 1 01 1 01 0 01 0 01 1 01 0 01 0 01 0 01 1 01 1 01 0 01 1 01 0 01 1 01 0 01 1 01 0 01 1 01 1 000
1 0 01 1 01 1 01 0 01 1 01 1 01 0 01 1 01 0 01 1 01 1 01 1 01 0 01 1 01 0 01 1 01 0 01 1 01 0 01 0 01 0 01 1 01 0 01 0 01 0 01 0 01 0 01 0 01 1 01 1 01 0 01 1 01 1 01 0 01 0 01 1 01 1 01 0 01 0 01 1 01 1 01 1 01 0 01 0 01 1 01 0 01 1 01 1 01 1 01 0 01 0 01 1 01 0 01 0 01 0 01 1 01 1 01 0 01 1 01 0 01 1 01 0 01 1 01 0 01 1 01 1 000
1 0 01 1 01 1 01 1 01 1 01 0 01 1 01 0 01 1 01 1 01 0 01 0 01 1 01 1 01 1 01 1 01 0 01 1 01 1 01 1 01 0 01 0 01 0 01 0 01 0 01 1 01 1 01 0 01 1 01 0 01 1 01 1 01 1 01 0 01 0 01 1 01 1 01 0 01 0 01 1 01 1 01 1 01 0 01 0 01 1 01 0 01 1 01 1 01 1 01 0 01 0 01 1 01 0 01 0 01 0 01 1 01 1 01 0 01 1 01 0 01 1 01 0 01 1 01 0 01 1 01 1 000
1 1 01 1 01 0 01 0 01 1 01 1 01 1 01 1 01 1 01 0 01 0 01 0 01 1 01 0 01 1 01 1 01 0 01 0 01 0 01 0 01 1 01 0 01 0 01 0 01 0 01 0 01 0 01 1 01 1 01 0 01 0 01 0 01 1 01 0 01 0 01 1 01 1 01 0 01 0 01 1 01 1 01 1 01 0 01 0 01 1 01 0 01 1 01 1 01 1 01 0 01 0 01 1 01 0 01 0 01 0 01 1 01 1 01 0 01 1 01 0 01 1 01 0 01 1 01 0 01 1 01 1 000
1 1 01 1 01 0 01 0 01 1 01 0 01 0 01 1 01 0 01 0 01 0 01 0 01 0 01 0 01 1 01 1 01 0 01 1 01 1 01 0 01 1 01 1 01 1 01 1 01 0 01 0 01 0 01 0 01 1 01 0 01 0 01 0 01 1 01 0 01 0 01 1 01 1 01 0 01 0 01 1 01 1 01 1 01 0 01 0 01 1 01 0 01 1 01 1 01 1 01 0 01 0 01 1 01 0 01 0 01 0 01 1 01 1 01 0 01 1 01 0 01 1 01 0 01 1 01 0 01 1 01 1 000
1 1 01 1 01 1 01 0 01 1 01 1 01 0 01 0 01 1 01 0 01 1 01 1 01 0 01 0 01 1 01 0 01 0 01 0 01 0 01 1 01 0 01 1 01 0 01 0 01 1 01 1 01 1 01 1 01 0 01 1 01 1 01 0 01 1 01 0 01 0 01 1 01 1 01 0 01 0 01 1 01 1 01 1 01 0 01 0 01 1 01 0 01 1 01 1 01 1 01 0 01 0 01 1 01 0 01 0 01 0 01 1 01 1 01 0 01 1 01 0 01 1 01 0 01 1 01 0 01 1 01 1 000
1 1 01 0 01 0 01 1 01 0 01 1 01 0 01 0 01 0 01 0 01 1 01 1 01 1 01 0 01 1 01 1 01 0 01 0 01 1 01 0 01 1 01 1 01 0 01 1 01 1 01 0 01 1 01 1 01 1 01 0 01 1 01 1 01 1 01 0 01 0 01 1 01 1 01 0 01 0 01 1 01 1 01 1 01 0 01 0 01 1 01 0 01 1 01 1 01 1 01 0 01 0 01 1 01 0 01 0 01 0 01 1 01 1 01 0 01 1 01 0 01 1 01 0 01 1 01 0 01 1 01 1 000
1 0 01 1 01 0 01 0 01 1 01 1 01 1 01 1 01 1 01 0 01 0 01 0 01 0 01 1 01 1 01 0 01 1 01 1 01 0 01 0 01 0 01 0 01 0 01 0 01 1 01 1 01 0 01 1 01 0 01 0 01 1 01 1 01 1 01 0 01 0 01 1 01 1 01 0 01 0 01 1 01 1 01 1 01 0 01 0 01 1 01 0 01 1 01 1 01 1 01 0 01 0 01 1 01 0 01 0 01 0 01 1 01 1 01 0 01 1 01 0 01 1 01 0 01 1 01 0 01 1 01 1 000


(removal of first chunk [1], removal of all [01] padding, removal of last [000])
1 01 0 01 0 01 1 01 1 01 0 01 0 01 0 01 0 01 0 01 0 01 1 01 1 01 1 01 1 01 0 01 1 01 0 01 0 01 0 01 1 01 1 01 1 01 1 01 1 01 1 01 1 01 0 01 0 01 0 01 0 01 1 01 1 01 0 01 0 01 1 01 1 01 0 01 0 01 1 01 1 01 1 01 0 01 0 01 1 01 0 01 1 01 1 01 1 01 0 01 0 01 1 01 0 01 0 01 0 01 1 01 1 01 0 01 1 01 0 01 1 01 0 01 1 01 0 01 1 01 1 000
1 01 0 01 1 01 0 01 1 01 1 01 1 01 0 01 1 01 1 01 0 01 1 01 1 01 1 01 0 01 0 01 0 01 0 01 1 01 1 01 0 01 1 01 0 01 0 01 0 01 1 01 1 01 0 01 0 01 1 01 1 01 0 01 1 01 0 01 0 01 1 01 1 01 0 01 0 01 1 01 1 01 1 01 0 01 0 01 1 01 0 01 1 01 1 01 1 01 0 01 0 01 1 01 0 01 0 01 0 01 1 01 1 01 0 01 1 01 0 01 1 01 0 01 1 01 0 01 1 01 1 000
1 01 0 01 0 01 1 01 0 01 1 01 0 01 1 01 0 01 1 01 1 01 1 01 1 01 0 01 1 01 0 01 1 01 0 01 1 01 1 01 1 01 0 01 1 01 0 01 1 01 1 01 1 01 1 01 0 01 1 01 1 01 1 01 1 01 0 01 0 01 1 01 1 01 0 01 0 01 1 01 1 01 1 01 0 01 0 01 1 01 0 01 1 01 1 01 1 01 0 01 0 01 1 01 0 01 0 01 0 01 1 01 1 01 0 01 1 01 0 01 1 01 0 01 1 01 0 01 1 01 1 000
1 01 0 01 1 01 0 01 0 01 0 01 1 01 0 01 0 01 1 01 0 01 1 01 1 01 0 01 1 01 1 01 0 01 1 01 0 01 0 01 0 01 1 01 1 01 0 01 1 01 1 01 0 01 0 01 0 01 0 01 0 01 1 01 1 01 0 01 0 01 1 01 1 01 0 01 0 01 1 01 1 01 1 01 0 01 0 01 1 01 0 01 1 01 1 01 1 01 0 01 0 01 1 01 0 01 0 01 0 01 1 01 1 01 0 01 1 01 0 01 1 01 0 01 1 01 0 01 1 01 1 000
0 01 0 01 0 01 1 01 0 01 1 01 1 01 0 01 1 01 0 01 0 01 0 01 0 01 1 01 0 01 1 01 1 01 0 01 1 01 0 01 1 01 0 01 1 01 0 01 0 01 0 01 0 01 1 01 1 01 1 01 1 01 0 01 1 01 0 01 0 01 1 01 1 01 0 01 0 01 1 01 1 01 1 01 0 01 0 01 1 01 0 01 1 01 1 01 1 01 0 01 0 01 1 01 0 01 0 01 0 01 1 01 1 01 0 01 1 01 0 01 1 01 0 01 1 01 0 01 1 01 1 000
0 01 1 01 1 01 0 01 1 01 1 01 0 01 1 01 0 01 1 01 1 01 1 01 0 01 1 01 0 01 1 01 0 01 1 01 0 01 0 01 0 01 1 01 0 01 0 01 0 01 0 01 0 01 0 01 1 01 1 01 0 01 1 01 1 01 0 01 0 01 1 01 1 01 0 01 0 01 1 01 1 01 1 01 0 01 0 01 1 01 0 01 1 01 1 01 1 01 0 01 0 01 1 01 0 01 0 01 0 01 1 01 1 01 0 01 1 01 0 01 1 01 0 01 1 01 0 01 1 01 1 000
0 01 1 01 1 01 1 01 1 01 0 01 1 01 0 01 1 01 1 01 0 01 0 01 1 01 1 01 1 01 1 01 0 01 1 01 1 01 1 01 0 01 0 01 0 01 0 01 0 01 1 01 1 01 0 01 1 01 0 01 1 01 1 01 1 01 0 01 0 01 1 01 1 01 0 01 0 01 1 01 1 01 1 01 0 01 0 01 1 01 0 01 1 01 1 01 1 01 0 01 0 01 1 01 0 01 0 01 0 01 1 01 1 01 0 01 1 01 0 01 1 01 0 01 1 01 0 01 1 01 1 000
1 01 1 01 0 01 0 01 1 01 1 01 1 01 1 01 1 01 0 01 0 01 0 01 1 01 0 01 1 01 1 01 0 01 0 01 0 01 0 01 1 01 0 01 0 01 0 01 0 01 0 01 0 01 1 01 1 01 0 01 0 01 0 01 1 01 0 01 0 01 1 01 1 01 0 01 0 01 1 01 1 01 1 01 0 01 0 01 1 01 0 01 1 01 1 01 1 01 0 01 0 01 1 01 0 01 0 01 0 01 1 01 1 01 0 01 1 01 0 01 1 01 0 01 1 01 0 01 1 01 1 000
1 01 1 01 0 01 0 01 1 01 0 01 0 01 1 01 0 01 0 01 0 01 0 01 0 01 0 01 1 01 1 01 0 01 1 01 1 01 0 01 1 01 1 01 1 01 1 01 0 01 0 01 0 01 0 01 1 01 0 01 0 01 0 01 1 01 0 01 0 01 1 01 1 01 0 01 0 01 1 01 1 01 1 01 0 01 0 01 1 01 0 01 1 01 1 01 1 01 0 01 0 01 1 01 0 01 0 01 0 01 1 01 1 01 0 01 1 01 0 01 1 01 0 01 1 01 0 01 1 01 1 000
1 01 1 01 1 01 0 01 1 01 1 01 0 01 0 01 1 01 0 01 1 01 1 01 0 01 0 01 1 01 0 01 0 01 0 01 0 01 1 01 0 01 1 01 0 01 0 01 1 01 1 01 1 01 1 01 0 01 1 01 1 01 0 01 1 01 0 01 0 01 1 01 1 01 0 01 0 01 1 01 1 01 1 01 0 01 0 01 1 01 0 01 1 01 1 01 1 01 0 01 0 01 1 01 0 01 0 01 0 01 1 01 1 01 0 01 1 01 0 01 1 01 0 01 1 01 0 01 1 01 1 000
1 01 0 01 0 01 1 01 0 01 1 01 0 01 0 01 0 01 0 01 1 01 1 01 1 01 0 01 1 01 1 01 0 01 0 01 1 01 0 01 1 01 1 01 0 01 1 01 1 01 0 01 1 01 1 01 1 01 0 01 1 01 1 01 1 01 0 01 0 01 1 01 1 01 0 01 0 01 1 01 1 01 1 01 0 01 0 01 1 01 0 01 1 01 1 01 1 01 0 01 0 01 1 01 0 01 0 01 0 01 1 01 1 01 0 01 1 01 0 01 1 01 0 01 1 01 0 01 1 01 1 000
0 01 1 01 0 01 0 01 1 01 1 01 1 01 1 01 1 01 0 01 0 01 0 01 0 01 1 01 1 01 0 01 1 01 1 01 0 01 0 01 0 01 0 01 0 01 0 01 1 01 1 01 0 01 1 01 0 01 0 01 1 01 1 01 1 01 0 01 0 01 1 01 1 01 0 01 0 01 1 01 1 01 1 01 0 01 0 01 1 01 0 01 1 01 1 01 1 01 0 01 0 01 1 01 0 01 0 01 0 01 1 01 1 01 0 01 1 01 0 01 1 01 0 01 1 01 0 01 1 01 1 000


(collapsed down to binary string)
100110000001111010001111111000011001100111001011100100011010101011
101011101101110000110100011001101001100111001011100100011010101011
100101010111101010111010111101111001100111001011100100011010101011
101000100101101101000110110000011001100111001011100100011010101011
000101101000010110101010000111101001100111001011100100011010101011
011011010111010101000100000011011001100111001011100100011010101011
011110101100111101110000011010111001100111001011100100011010101011
110011111000101100001000000110001001100111001011100100011010101011
110010010000001101101111000010001001100111001011100100011010101011
111011001011001000010100111101101001100111001011100100011010101011
100101000011101100101101101110111001100111001011100100011010101011
010011111000011011000000110100111001100111001011100100011010101011



converted to hex and seperated between key and serial#, sequential generation
(key)     (serial)
981E8FE1 2672e46ab
AEDC3466 2672e46ab
957ABAF7 2672e46ab
A25B46C1 2672e46ab
1685AA1E 2672e46ab
6D75440D 2672e46ab
7ACF706B 2672e46ab
CF8B0818 2672e46ab
C9036F08 2672e46ab
ECB214F6 2672e46ab
943B2DBB 2672e46ab
4F86C0D3 2672e46ab
